{
  "prepare_queue": {
    "installed": [],
    "uninstalled": []
  },
  "config_munge": {
    "files": {}
  },
  "installed_plugins": {
    "cordova-plugin-nativestorage": {
      "PACKAGE_NAME": "com.MGA.apptuiacad"
    },
    "cordova-plugin-google-analytics": {
      "PACKAGE_NAME": "com.MGA.apptuiacad"
    },
    "call-number": {
      "PACKAGE_NAME": "com.MGA.apptuiacad"
    },
    "cordova-plugin-app-version": {
      "PACKAGE_NAME": "com.MGA.apptuiacad"
    },
    "cordova-plugin-appavailability": {
      "PACKAGE_NAME": "com.MGA.apptuiacad"
    },
    "cordova-plugin-device": {
      "PACKAGE_NAME": "com.MGA.apptuiacad"
    },
    "cordova-plugin-console": {
      "PACKAGE_NAME": "com.MGA.apptuiacad"
    },
    "cordova-plugin-dialogs": {
      "PACKAGE_NAME": "com.MGA.apptuiacad"
    },
    "cordova-plugin-geolocation": {
      "PACKAGE_NAME": "com.MGA.apptuiacad"
    },
    "cordova-plugin-inappbrowser": {
      "PACKAGE_NAME": "com.MGA.apptuiacad"
    },
    "cordova-plugin-market": {
      "PACKAGE_NAME": "com.MGA.apptuiacad"
    },
    "cordova-plugin-splashscreen": {
      "PACKAGE_NAME": "com.MGA.apptuiacad"
    },
    "cordova-plugin-statusbar": {
      "PACKAGE_NAME": "com.MGA.apptuiacad"
    },
    "ionic-plugin-keyboard": {
      "PACKAGE_NAME": "com.MGA.apptuiacad"
    },
    "cordova-plugin-whitelist": {
      "PACKAGE_NAME": "com.MGA.apptuiacad"
    },
    "cordova-plugin-actionsheet": {
      "PACKAGE_NAME": "com.MGA.apptuiuv"
    },
    "onesignal-cordova-plugin": {
      "PACKAGE_NAME": "com.MGA.apptuiuv"
    }
  },
  "dependent_plugins": {}
}